…
### The database

The database contains identifying information about the stored files
**except** for the path to the storage location. This adds a little
extra work for the end user (keeping track of the data path), but that
extra effort is offset by improved portability and ease of use.

``` r
db
```

    ## # A tibble: 36 × 7
    ##    source                 date       hour  param per   nrt   time               
    ##    <chr>                  <date>     <chr> <chr> <chr> <lgl> <dttm>             
    ##  1 uvcomp_SCIMonthlyGlob… 1995-01-15 0000… u_wi… month FALSE 1995-01-15 00:00:00
    ##  2 uvcomp_SCIMonthlyGlob… 1995-01-15 0000… v_wi… month FALSE 1995-01-15 00:00:00
    ##  3 uvcomp_SCIMonthlyGlob… 1995-01-15 0000… wind… month FALSE 1995-01-15 00:00:00
    ##  4 uvcomp_SCIMonthlyGlob… 1995-02-15 0000… u_wi… month FALSE 1995-02-15 00:00:00
    ##  5 uvcomp_SCIMonthlyGlob… 1995-02-15 0000… v_wi… month FALSE 1995-02-15 00:00:00
    ##  6 uvcomp_SCIMonthlyGlob… 1995-02-15 0000… wind… month FALSE 1995-02-15 00:00:00
    ##  7 uvcomp_SCIMonthlyGlob… 1995-03-15 0000… u_wi… month FALSE 1995-03-15 00:00:00
    ##  8 uvcomp_SCIMonthlyGlob… 1995-03-15 0000… v_wi… month FALSE 1995-03-15 00:00:00
    ##  9 uvcomp_SCIMonthlyGlob… 1995-03-15 0000… wind… month FALSE 1995-03-15 00:00:00
    ## 10 uvcomp_SCIMonthlyGlob… 1995-04-15 0000… u_wi… month FALSE 1995-04-15 00:00:00
    ## # ℹ 26 more rows
…
